0-Test/files/oszi/help/CH1.CSV

Record Length,2500,0,4,;;;;;;
Sample Interval,0.00002,1.99999999999992E-05,0.5,;;;;;;
Trigger Point,1050,3.99999999999984E-05,0,;;;;;;
,,5.99999999999976E-05,0,;;;;;;
,,7.99999999999967E-05,0,;;;;;;
,,9.99999999999994E-05,0,;;;;;;
Source,CH1,0.000119999999999999,0.5,;;;;;;
Vertical Units,V,0.000139999999999998,0,;;;;;;
Vertical Scale,50,0.000159999999999997,0,;;;;;;
Vertical Offset,110,0.00018,0,;;;;;;
Horizontal Units,s,0.000199999999999999,0.5,;;;;;;
Horizontal Scale,0.005,0.000219999999999998,0.5,;;;;;;
Pt Fmt,Y,0.000239999999999997,0,;;;;;;
Yzero,0,0.00026,0,;;;;;;
Probe Atten,100,0.000279999999999999,0,;;;;;;
Model Number,TDS2004B,0.000299999999999998,0,;;;;;;
Serial Number,C034927,0.000319999999999997,0,;;;;;;
Firmware Version,FV:v22.01,0.00034,0,;;;;;;
,,0.000359999999999999,0.5,;;;;;;
,,0.000379999999999998,0,;;;;;;
,,0.000399999999999998,0,;;;;;;
,,0.000419999999999997,-0.5,;;;;;;
,,0.000439999999999999,0.5,;;;;;;
,,0.000459999999999999,0,;;;;;;
,,0.000479999999999998,0,;;;;;;
,,0.000499999999999997,0,;;;;;;
,,0.00052,0,;;;;;;
,,0.000539999999999999,0,;;;;;;
,,0.000559999999999998,0,;;;;;;
,,0.000579999999999997,0,;;;;;;
,,0.0006,0,;;;;;;
,,0.000619999999999999,0,;;;;;;
,,0.000639999999999998,0,;;;;;;
,,0.000659999999999997,0,;;;;;;
,,0.00068,0.5,;;;;;;
,,0.000699999999999999,0,;;;;;;
,,0.000719999999999998,0.5,;;;;;;
,,0.000739999999999998,0.5,;;;;;;
,,0.000759999999999997,0.5,;;;;;;
,,0.000779999999999999,0,;;;;;;
,,0.000799999999999999,0,;;;;;;
,,0.000819999999999998,0,;;;;;;
,,0.000839999999999997,0,;;;;;;
,,0.00086,0.5,;;;;;;
,,0.000879999999999999,0.5,;;;;;;
,,0.000899999999999998,0,;;;;;;
,,0.000919999999999997,-0.5,;;;;;;
,,0.00094,0,;;;;;;
,,0.000959999999999999,0.5,;;;;;;
,,0.000979999999999998,0.5,;;;;;;
,,0.000999999999999997,0,;;;;;;
,,0.00102,0,;;;;;;
,,0.00104,0,;;;;;;
,,0.00106,0,;;;;;;
,,0.00108,0.5,;;;;;;
,,0.0011,0,;;;;;;
,,0.00112,0,;;;;;;
,,0.00114,0,;;;;;;
,,0.00116,0,;;;;;;
,,0.00118,0.5,;;;;;;
,,0.0012,0,;;;;;;
,,0.00122,0,;;;;;;
,,0.00124,0.5,;;;;;;
,,0.00126,0,;;;;;;
,,0.00128,0.5,;;;;;;
,,0.0013,0,;;;;;;
,,0.00132,0,;;;;;;
,,0.00134,0,;;;;;;
,,0.00136,0,;;;;;;
,,0.00138,0.5,;;;;;;
,,0.0014,0,;;;;;;
,,0.00142,0,;;;;;;
,,0.00144,0.5,;;;;;;
,,0.00146,0,;;;;;;
,,0.00148,0.5,;;;;;;
,,0.0015,0,;;;;;;
,,0.00152,0.5,;;;;;;
,,0.00154,0,;;;;;;
,,0.00156,0.5,;;;;;;
,,0.00158,0,;;;;;;
,,0.0016,0,;;;;;;
,,0.00162,0,;;;;;;
,,0.00164,0.5,;;;;;;
,,0.00166,0.5,;;;;;;
,,0.00168,0,;;;;;;
,,0.0017,0.5,;;;;;;
,,0.00172,0,;;;;;;
,,0.00174,0,;;;;;;
,,0.00176,0,;;;;;;
,,0.00178,0,;;;;;;
,,0.0018,0.5,;;;;;;
,,0.00182,0,;;;;;;
,,0.00184,0,;;;;;;
,,0.00186,0.5,;;;;;;
,,0.00188,0,;;;;;;
,,0.0019,0,;;;;;;
,,0.00192,0,;;;;;;
,,0.00194,0.5,;;;;;;
,,0.00196,0.5,;;;;;;
,,0.00198,0,;;;;;;
,,0.002,0,;;;;;;
,,0.00202,0.5,;;;;;;
,,0.00204,0.5,;;;;;;
,,0.00206,0.5,;;;;;;
,,0.00208,0,;;;;;;
,,0.0021,0,;;;;;;
,,0.00212,0,;;;;;;
,,0.00214,0.5,;;;;;;
,,0.00216,0.5,;;;;;;
,,0.00218,0.5,;;;;;;
,,0.0022,0.5,;;;;;;
,,0.00222,0,;;;;;;
,,0.00224,0,;;;;;;
,,0.00226,0,;;;;;;
,,0.00228,0,;;;;;;
,,0.0023,0,;;;;;;
,,0.00232,0.5,;;;;;;
,,0.00234,0,;;;;;;
,,0.00236,0.5,;;;;;;
,,0.00238,0,;;;;;;
,,0.0024,0,;;;;;;
,,0.00242,0,;;;;;;
,,0.00244,0,;;;;;;
,,0.00246,0,;;;;;;
,,0.00248,0,;;;;;;
,,0.0025,0,;;;;;;
,,0.00252,38,;;;;;;
,,0.00254,58,;;;;;;
,,0.00256,60,;;;;;;
,,0.00258,60,;;;;;;
,,0.0026,62,;;;;;;
,,0.00262,62,;;;;;;
,,0.00264,62,;;;;;;
,,0.00266,64,;;;;;;
,,0.00268,62,;;;;;;
,,0.0027,64,;;;;;;
,,0.00272,64,;;;;;;
,,0.00274,64,;;;;;;
,,0.00276,66,;;;;;;
,,0.00278,66,;;;;;;
,,0.0028,68,;;;;;;
,,0.00282,68,;;;;;;
,,0.00284,68,;;;;;;
,,0.00286,68,;;;;;;
,,0.00288,70,;;;;;;
,,0.0029,68,;;;;;;
,,0.00292,70,;;;;;;
,,0.00294,70,;;;;;;
,,0.00296,70,;;;;;;
,,0.00298,72,;;;;;;
,,0.003,70,;;;;;;
,,0.00302,72,;;;;;;
,,0.00304,72,;;;;;;
,,0.00306,72,;;;;;;
,,0.00308,74,;;;;;;
,,0.0031,74,;;;;;;
,,0.00312,72,;;;;;;
,,0.00314,74,;;;;;;
,,0.00316,74,;;;;;;
,,0.00318,74,;;;;;;
,,0.0032,76,;;;;;;
,,0.00322,74,;;;;;;
,,0.00324,76,;;;;;;
,,0.00326,76,;;;;;;
,,0.00328,76,;;;;;;
,,0.0033,76,;;;;;;
,,0.00332,76,;;;;;;
,,0.00334,78,;;;;;;
,,0.00336,78,;;;;;;
,,0.00338,78,;;;;;;
,,0.0034,78,;;;;;;
,,0.00342,78,;;;;;;
,,0.00344,80,;;;;;;
,,0.00346,78,;;;;;;
,,0.00348,80,;;;;;;
,,0.0035,80,;;;;;;
,,0.00352,78,;;;;;;
,,0.00354,80,;;;;;;
,,0.00356,80,;;;;;;
,,0.00358,78,;;;;;;
,,0.0036,82,;;;;;;
,,0.00362,82,;;;;;;
,,0.00364,82,;;;;;;
,,0.00366,82,;;;;;;
,,0.00368,82,;;;;;;
,,0.0037,82,;;;;;;
,,0.00372,82,;;;;;;
,,0.00374,82,;;;;;;
,,0.00376,82,;;;;;;
,,0.00378,84,;;;;;;
,,0.0038,84,;;;;;;
,,0.00382,82,;;;;;;
,,0.00384,84,;;;;;;
,,0.00386,82,;;;;;;
,,0.00388,84,;;;;;;
,,0.0039,84,;;;;;;
,,0.00392,84,;;;;;;
,,0.00394,84,;;;;;;
,,0.00396,86,;;;;;;
,,0.00398,84,;;;;;;
,,0.004,82,;;;;;;
,,0.00402,86,;;;;;;
,,0.00404,84,;;;;;;
,,0.00406,86,;;;;;;
,,0.00408,84,;;;;;;
,,0.0041,88,;;;;;;
,,0.00412,86,;;;;;;
,,0.00414,86,;;;;;;
,,0.00416,84,;;;;;;
,,0.00418,88,;;;;;;
,,0.0042,86,;;;;;;
,,0.00422,86,;;;;;;
,,0.00424,86,;;;;;;
,,0.00426,86,;;;;;;
,,0.00428,88,;;;;;;
,,0.0043,86,;;;;;;
,,0.00432,86,;;;;;;
,,0.00434,86,;;;;;;
,,0.00436,88,;;;;;;
,,0.00438,88,;;;;;;
,,0.0044,88,;;;;;;
,,0.00442,88,;;;;;;
,,0.00444,88,;;;;;;
,,0.00446,88,;;;;;;
,,0.00448,88,;;;;;;
,,0.0045,88,;;;;;;
,,0.00452,88,;;;;;;
,,0.00454,88,;;;;;;
,,0.00456,88,;;;;;;
,,0.00458,88,;;;;;;
,,0.0046,88,;;;;;;
,,0.00462,88,;;;;;;
,,0.00464,90,;;;;;;
,,0.00466,88,;;;;;;
,,0.00468,90,;;;;;;
,,0.0047,90,;;;;;;
,,0.00472,88,;;;;;;
,,0.00474,88,;;;;;;
,,0.00476,88,;;;;;;
,,0.00478,88,;;;;;;
,,0.0048,90,;;;;;;
,,0.00482,88,;;;;;;
,,0.00484,88,;;;;;;
,,0.00486,88,;;;;;;
,,0.00488,88,;;;;;;
,,0.0049,90,;;;;;;
,,0.00492,88,;;;;;;
,,0.00494,90,;;;;;;
,,0.00496,88,;;;;;;
,,0.00498,90,;;;;;;
,,0.005,88,;;;;;;
,,0.00502,88,;;;;;;
,,0.00504,88,;;;;;;
,,0.00506,90,;;;;;;
,,0.00508,90,;;;;;;
,,0.0051,90,;;;;;;
,,0.00512,88,;;;;;;
,,0.00514,90,;;;;;;
,,0.00516,88,;;;;;;
,,0.00518,90,;;;;;;
,,0.0052,88,;;;;;;
,,0.00522,88,;;;;;;
,,0.00524,90,;;;;;;
,,0.00526,90,;;;;;;
,,0.00528,90,;;;;;;
,,0.0053,88,;;;;;;
,,0.00532,90,;;;;;;
,,0.00534,90,;;;;;;
,,0.00536,92,;;;;;;
,,0.00538,90,;;;;;;
,,0.0054,90,;;;;;;
,,0.00542,90,;;;;;;
,,0.00544,90,;;;;;;
,,0.00546,88,;;;;;;
,,0.00548,90,;;;;;;
,,0.0055,90,;;;;;;
,,0.00552,90,;;;;;;
,,0.00554,90,;;;;;;
,,0.00556,90,;;;;;;
,,0.00558,90,;;;;;;
,,0.0056,88,;;;;;;
,,0.00562,90,;;;;;;
,,0.00564,90,;;;;;;
,,0.00566,90,;;;;;;
,,0.00568,90,;;;;;;
,,0.0057,88,;;;;;;
,,0.00572,90,;;;;;;
,,0.00574,88,;;;;;;
,,0.00576,88,;;;;;;
,,0.00578,90,;;;;;;
,,0.0058,90,;;;;;;
,,0.00582,90,;;;;;;
,,0.00584,90,;;;;;;
,,0.00586,90,;;;;;;
,,0.00588,90,;;;;;;
,,0.0059,88,;;;;;;
,,0.00592,90,;;;;;;
,,0.00594,90,;;;;;;
,,0.00596,90,;;;;;;
,,0.00598,88,;;;;;;
,,0.006,88,;;;;;;
,,0.00602,90,;;;;;;
,,0.00604,90,;;;;;;
,,0.00606,90,;;;;;;
,,0.00608,90,;;;;;;
,,0.0061,90,;;;;;;
,,0.00612,90,;;;;;;
,,0.00614,90,;;;;;;
,,0.00616,90,;;;;;;
,,0.00618,88,;;;;;;
,,0.0062,88,;;;;;;
,,0.00622,90,;;;;;;
,,0.00624,88,;;;;;;
,,0.00626,88,;;;;;;
,,0.00628,88,;;;;;;
,,0.0063,88,;;;;;;
,,0.00632,88,;;;;;;
,,0.00634,90,;;;;;;
,,0.00636,88,;;;;;;
,,0.00638,88,;;;;;;
,,0.0064,86,;;;;;;
,,0.00642,88,;;;;;;
,,0.00644,86,;;;;;;
,,0.00646,88,;;;;;;
,,0.00648,86,;;;;;;
,,0.0065,86,;;;;;;
,,0.00652,84,;;;;;;
,,0.00654,86,;;;;;;
,,0.00656,84,;;;;;;
,,0.00658,84,;;;;;;
,,0.0066,82,;;;;;;
,,0.00662,84,;;;;;;
,,0.00664,82,;;;;;;
,,0.00666,82,;;;;;;
,,0.00668,82,;;;;;;
,,0.0067,82,;;;;;;
,,0.00672,80,;;;;;;
,,0.00674,80,;;;;;;
,,0.00676,82,;;;;;;
,,0.00678,80,;;;;;;
,,0.0068,80,;;;;;;
,,0.00682,78,;;;;;;
,,0.00684,78,;;;;;;
,,0.00686,78,;;;;;;
,,0.00688,76,;;;;;;
,,0.0069,76,;;;;;;
,,0.00692,76,;;;;;;
,,0.00694,74,;;;;;;
,,0.00696,74,;;;;;;
,,0.00698,74,;;;;;;
,,0.007,74,;;;;;;
,,0.00702,74,;;;;;;
,,0.00704,74,;;;;;;
,,0.00706,74,;;;;;;
,,0.00708,72,;;;;;;
,,0.0071,74,;;;;;;
,,0.00712,72,;;;;;;
,,0.00714,72,;;;;;;
,,0.00716,72,;;;;;;
,,0.00718,70,;;;;;;
,,0.0072,72,;;;;;;
,,0.00722,70,;;;;;;
,,0.00724,70,;;;;;;
,,0.00726,68,;;;;;;
,,0.00728,70,;;;;;;
,,0.0073,68,;;;;;;
,,0.00732,68,;;;;;;
,,0.00734,68,;;;;;;
,,0.00736,68,;;;;;;
,,0.00738,68,;;;;;;
,,0.0074,66,;;;;;;
,,0.00742,68,;;;;;;
,,0.00744,66,;;;;;;
,,0.00746,66,;;;;;;
,,0.00748,66,;;;;;;
,,0.0075,62,;;;;;;
,,0.00752,64,;;;;;;
,,0.00754,66,;;;;;;
,,0.00756,64,;;;;;;
,,0.00758,62,;;;;;;
,,0.0076,62,;;;;;;
,,0.00762,62,;;;;;;
,,0.00764,62,;;;;;;
,,0.00766,60,;;;;;;
,,0.00768,60,;;;;;;
,,0.0077,60,;;;;;;
,,0.00772,60,;;;;;;
,,0.00774,60,;;;;;;
,,0.00776,58,;;;;;;
,,0.00778,60,;;;;;;
,,0.0078,58,;;;;;;
,,0.00782,58,;;;;;;
,,0.00784,56,;;;;;;
,,0.00786,56,;;;;;;
,,0.00788,54,;;;;;;
,,0.0079,56,;;;;;;
,,0.00792,56,;;;;;;
,,0.00794,56,;;;;;;
,,0.00796,56,;;;;;;
,,0.00798,54,;;;;;;
,,0.008,54,;;;;;;
,,0.00802,52,;;;;;;
,,0.00804,54,;;;;;;
,,0.00806,52,;;;;;;
,,0.00808,52,;;;;;;
,,0.0081,52,;;;;;;
,,0.00812,52,;;;;;;
,,0.00814,54,;;;;;;
,,0.00816,52,;;;;;;
,,0.00818,52,;;;;;;
,,0.0082,50,;;;;;;
,,0.00822,50,;;;;;;
,,0.00824,48,;;;;;;
,,0.00826,48,;;;;;;
,,0.00828,48,;;;;;;
,,0.0083,48,;;;;;;
,,0.00832,48,;;;;;;
,,0.00834,46,;;;;;;
,,0.00836,46,;;;;;;
,,0.00838,46,;;;;;;
,,0.0084,46,;;;;;;
,,0.00842,46,;;;;;;
,,0.00844,46,;;;;;;
,,0.00846,46,;;;;;;
,,0.00848,44,;;;;;;
,,0.0085,42,;;;;;;
,,0.00852,44,;;;;;;
,,0.00854,42,;;;;;;
,,0.00856,42,;;;;;;
,,0.00858,42,;;;;;;
,,0.0086,40,;;;;;;
,,0.00862,40,;;;;;;
,,0.00864,40,;;;;;;
,,0.00866,38,;;;;;;
,,0.00868,38,;;;;;;
,,0.0087,38,;;;;;;
,,0.00872,38,;;;;;;
,,0.00874,38,;;;;;;
,,0.00876,36,;;;;;;
,,0.00878,36,;;;;;;
,,0.0088,36,;;;;;;
,,0.00882,36,;;;;;;
,,0.00884,36,;;;;;;
,,0.00886,38,;;;;;;
,,0.00888,34,;;;;;;
,,0.0089,34,;;;;;;
,,0.00892,34,;;;;;;
,,0.00894,34,;;;;;;
,,0.00896,32,;;;;;;
,,0.00898,32,;;;;;;
,,0.009,32,;;;;;;
,,0.00902,32,;;;;;;
,,0.00904,30,;;;;;;
,,0.00906,30,;;;;;;
,,0.00908,28,;;;;;;
,,0.0091,30,;;;;;;
,,0.00912,30,;;;;;;
,,0.00914,28,;;;;;;
,,0.00916,28,;;;;;;
,,0.00918,28,;;;;;;
,,0.0092,28,;;;;;;
,,0.00922,26,;;;;;;
,,0.00924,26,;;;;;;
,,0.00926,26,;;;;;;
,,0.00928,24,;;;;;;
,,0.0093,24,;;;;;;
,,0.00932,24,;;;;;;
,,0.00934,24,;;;;;;
,,0.00936,22,;;;;;;
,,0.00938,22,;;;;;;
,,0.0094,20,;;;;;;
,,0.00942,22,;;;;;;
,,0.00944,22,;;;;;;
,,0.00946,20,;;;;;;
,,0.00948,18,;;;;;;
,,0.0095,20,;;;;;;
,,0.00952,16,;;;;;;
,,0.00954,16,;;;;;;
,,0.00956,16,;;;;;;
,,0.00958,16,;;;;;;
,,0.0096,14,;;;;;;
,,0.00962,14,;;;;;;
,,0.00964,14,;;;;;;
,,0.00966,14,;;;;;;
,,0.00968,14,;;;;;;
,,0.0097,12,;;;;;;
,,0.00972,12,;;;;;;
,,0.00974,12,;;;;;;
,,0.00976,12,;;;;;;
,,0.00978,10,;;;;;;
,,0.0098,8,;;;;;;
,,0.00982,10,;;;;;;
,,0.00984,10,;;;;;;
,,0.00986,8,;;;;;;
,,0.00988,8,;;;;;;
,,0.0099,6,;;;;;;
,,0.00992,6,;;;;;;
,,0.00994,4,;;;;;;
,,0.00996,4,;;;;;;
,,0.00998,4,;;;;;;
,,0.01,4,;;;;;;
,,0.01002,0.5,;;;;;;
,,0.01004,0,;;;;;;
,,0.01006,0.5,;;;;;;
,,0.01008,0,;;;;;;
,,0.0101,0,;;;;;;
,,0.01012,0,;;;;;;
,,0.01014,0.5,;;;;;;
,,0.01016,0,;;;;;;
,,0.01018,0.5,;;;;;;
,,0.0102,0.5,;;;;;;
,,0.01022,0,;;;;;;
,,0.01024,0,;;;;;;
,,0.01026,0,;;;;;;
,,0.01028,0,;;;;;;
,,0.0103,0,;;;;;;
,,0.01032,0.5,;;;;;;
,,0.01034,0,;;;;;;
,,0.01036,0,;;;;;;
,,0.01038,0,;;;;;;
,,0.0104,0.5,;;;;;;
,,0.01042,0.5,;;;;;;
,,0.01044,0,;;;;;;
,,0.01046,-0.5,;;;;;;
,,0.01048,0.5,;;;;;;
,,0.0105,0.5,;;;;;;
,,0.01052,0,;;;;;;
,,0.01054,0,;;;;;;
,,0.01056,0,;;;;;;
,,0.01058,0,;;;;;;
,,0.0106,0,;;;;;;
,,0.01062,0.5,;;;;;;
,,0.01064,0.5,;;;;;;
,,0.01066,0.5,;;;;;;
,,0.01068,0,;;;;;;
,,0.0107,0,;;;;;;
,,0.01072,0.5,;;;;;;
,,0.01074,0,;;;;;;
,,0.01076,0.5,;;;;;;
,,0.01078,0,;;;;;;
,,0.0108,0,;;;;;;
,,0.01082,0,;;;;;;
,,0.01084,0,;;;;;;
,,0.01086,0.5,;;;;;;
,,0.01088,0,;;;;;;
,,0.0109,0.5,;;;;;;
,,0.01092,0,;;;;;;
,,0.01094,0,;;;;;;
,,0.01096,0,;;;;;;
,,0.01098,0.5,;;;;;;
,,0.011,0,;;;;;;
,,0.01102,0.5,;;;;;;
,,0.01104,0.5,;;;;;;
,,0.01106,0,;;;;;;
,,0.01108,0,;;;;;;
,,0.0111,0,;;;;;;
,,0.01112,-0.5,;;;;;;
,,0.01114,0,;;;;;;
,,0.01116,0,;;;;;;
,,0.01118,0.5,;;;;;;
,,0.0112,0.5,;;;;;;
,,0.01122,0,;;;;;;
,,0.01124,0,;;;;;;
,,0.01126,-0.5,;;;;;;
,,0.01128,0.5,;;;;;;
,,0.0113,-0.5,;;;;;;
,,0.01132,0.5,;;;;;;
,,0.01134,0.5,;;;;;;
,,0.01136,0,;;;;;;
,,0.01138,0,;;;;;;
,,0.0114,0.5,;;;;;;
,,0.01142,0,;;;;;;
,,0.01144,0,;;;;;;
,,0.01146,0,;;;;;;
,,0.01148,0,;;;;;;
,,0.0115,0,;;;;;;
,,0.01152,0,;;;;;;
,,0.01154,0.5,;;;;;;
,,0.01156,0.5,;;;;;;
,,0.01158,0,;;;;;;
,,0.0116,0.5,;;;;;;
,,0.01162,0,;;;;;;
,,0.01164,0.5,;;;;;;
,,0.01166,0,;;;;;;
,,0.01168,-0.5,;;;;;;
,,0.0117,0,;;;;;;
,,0.01172,-0.5,;;;;;;
,,0.01174,0,;;;;;;
,,0.01176,0,;;;;;;
,,0.01178,0,;;;;;;
,,0.0118,0.5,;;;;;;
,,0.01182,0.5,;;;;;;
,,0.01184,0,;;;;;;
,,0.01186,0,;;;;;;
,,0.01188,0.5,;;;;;;
,,0.0119,0,;;;;;;
,,0.01192,0.5,;;;;;;
,,0.01194,0,;;;;;;
,,0.01196,0,;;;;;;
,,0.01198,0,;;;;;;
,,0.012,0,;;;;;;
,,0.01202,0.5,;;;;;;
,,0.01204,0.5,;;;;;;
,,0.01206,0.5,;;;;;;
,,0.01208,0.5,;;;;;;
,,0.0121,0,;;;;;;
,,0.01212,0.5,;;;;;;
,,0.01214,0.5,;;;;;;
,,0.01216,0,;;;;;;
,,0.01218,0,;;;;;;
,,0.0122,0,;;;;;;
,,0.01222,0,;;;;;;
,,0.01224,0.5,;;;;;;
,,0.01226,0,;;;;;;
,,0.01228,0.5,;;;;;;
,,0.0123,0.5,;;;;;;
,,0.01232,0,;;;;;;
,,0.01234,0,;;;;;;
,,0.01236,0.5,;;;;;;
,,0.01238,0,;;;;;;
,,0.0124,0.5,;;;;;;
,,0.01242,0,;;;;;;
,,0.01244,0,;;;;;;
,,0.01246,-0.5,;;;;;;
,,0.01248,0.5,;;;;;;
,,0.0125,30,;;;;;;
,,0.01252,54,;;;;;;
,,0.01254,60,;;;;;;
,,0.01256,58,;;;;;;
,,0.01258,60,;;;;;;
,,0.0126,60,;;;;;;
,,0.01262,62,;;;;;;
,,0.01264,62,;;;;;;
,,0.01266,64,;;;;;;
,,0.01268,64,;;;;;;
,,0.0127,64,;;;;;;
,,0.01272,64,;;;;;;
,,0.01274,64,;;;;;;
,,0.01276,64,;;;;;;
,,0.01278,64,;;;;;;
,,0.0128,66,;;;;;;
,,0.01282,68,;;;;;;
,,0.01284,68,;;;;;;
,,0.01286,68,;;;;;;
,,0.01288,68,;;;;;;
,,0.0129,70,;;;;;;
,,0.01292,70,;;;;;;
,,0.01294,70,;;;;;;
,,0.01296,68,;;;;;;
,,0.01298,70,;;;;;;
,,0.013,72,;;;;;;
,,0.01302,72,;;;;;;
,,0.01304,72,;;;;;;
,,0.01306,72,;;;;;;
,,0.01308,72,;;;;;;
,,0.0131,72,;;;;;;
,,0.01312,74,;;;;;;
,,0.01314,74,;;;;;;
,,0.01316,74,;;;;;;
,,0.01318,74,;;;;;;
,,0.0132,74,;;;;;;
,,0.01322,74,;;;;;;
,,0.01324,74,;;;;;;
,,0.01326,76,;;;;;;
,,0.01328,74,;;;;;;
,,0.0133,76,;;;;;;
,,0.01332,76,;;;;;;
,,0.01334,74,;;;;;;
,,0.01336,76,;;;;;;
,,0.01338,76,;;;;;;
,,0.0134,78,;;;;;;
,,0.01342,78,;;;;;;
,,0.01344,78,;;;;;;
,,0.01346,80,;;;;;;
,,0.01348,78,;;;;;;
,,0.0135,80,;;;;;;
,,0.01352,80,;;;;;;
,,0.01354,78,;;;;;;
,,0.01356,80,;;;;;;
,,0.01358,80,;;;;;;
,,0.0136,80,;;;;;;
,,0.01362,80,;;;;;;
,,0.01364,80,;;;;;;
,,0.01366,82,;;;;;;
,,0.01368,80,;;;;;;
,,0.0137,80,;;;;;;
,,0.01372,82,;;;;;;
,,0.01374,82,;;;;;;
,,0.01376,82,;;;;;;
,,0.01378,82,;;;;;;
,,0.0138,82,;;;;;;
,,0.01382,82,;;;;;;
,,0.01384,82,;;;;;;
,,0.01386,84,;;;;;;
,,0.01388,82,;;;;;;
,,0.0139,84,;;;;;;
,,0.01392,84,;;;;;;
,,0.01394,84,;;;;;;
,,0.01396,86,;;;;;;
,,0.01398,84,;;;;;;
,,0.014,84,;;;;;;
,,0.01402,86,;;;;;;
,,0.01404,84,;;;;;;
,,0.01406,86,;;;;;;
,,0.01408,84,;;;;;;
,,0.0141,86,;;;;;;
,,0.01412,84,;;;;;;
,,0.01414,84,;;;;;;
,,0.01416,86,;;;;;;
,,0.01418,86,;;;;;;
,,0.0142,88,;;;;;;
,,0.01422,86,;;;;;;
,,0.01424,86,;;;;;;
,,0.01426,86,;;;;;;
,,0.01428,86,;;;;;;
,,0.0143,88,;;;;;;
,,0.01432,88,;;;;;;
,,0.01434,86,;;;;;;
,,0.01436,86,;;;;;;
,,0.01438,88,;;;;;;
,,0.0144,88,;;;;;;
,,0.01442,86,;;;;;;
,,0.01444,88,;;;;;;
,,0.01446,86,;;;;;;
,,0.01448,90,;;;;;;
,,0.0145,88,;;;;;;
,,0.01452,90,;;;;;;
,,0.01454,88,;;;;;;
,,0.01456,86,;;;;;;
,,0.01458,88,;;;;;;
,,0.0146,88,;;;;;;
,,0.01462,88,;;;;;;
,,0.01464,88,;;;;;;
,,0.01466,90,;;;;;;
,,0.01468,90,;;;;;;
,,0.0147,90,;;;;;;
,,0.01472,90,;;;;;;
,,0.01474,88,;;;;;;
,,0.01476,88,;;;;;;
,,0.01478,88,;;;;;;
,,0.0148,88,;;;;;;
,,0.01482,88,;;;;;;
,,0.01484,90,;;;;;;
,,0.01486,90,;;;;;;
,,0.01488,88,;;;;;;
,,0.0149,88,;;;;;;
,,0.01492,88,;;;;;;
,,0.01494,88,;;;;;;
,,0.01496,88,;;;;;;
,,0.01498,88,;;;;;;
,,0.015,88,;;;;;;
,,0.01502,88,;;;;;;
,,0.01504,90,;;;;;;
,,0.01506,88,;;;;;;
,,0.01508,90,;;;;;;
,,0.0151,88,;;;;;;
,,0.01512,88,;;;;;;
,,0.01514,90,;;;;;;
,,0.01516,88,;;;;;;
,,0.01518,90,;;;;;;
,,0.0152,90,;;;;;;
,,0.01522,90,;;;;;;
,,0.01524,88,;;;;;;
,,0.01526,90,;;;;;;
,,0.01528,90,;;;;;;
,,0.0153,90,;;;;;;
,,0.01532,88,;;;;;;
,,0.01534,90,;;;;;;
,,0.01536,90,;;;;;;
,,0.01538,90,;;;;;;
,,0.0154,90,;;;;;;
,,0.01542,90,;;;;;;
,,0.01544,90,;;;;;;
,,0.01546,88,;;;;;;
,,0.01548,90,;;;;;;
,,0.0155,90,;;;;;;
,,0.01552,90,;;;;;;
,,0.01554,90,;;;;;;
,,0.01556,90,;;;;;;
,,0.01558,90,;;;;;;
,,0.0156,90,;;;;;;
,,0.01562,90,;;;;;;
,,0.01564,90,;;;;;;
,,0.01566,90,;;;;;;
,,0.01568,90,;;;;;;
,,0.0157,90,;;;;;;
,,0.01572,88,;;;;;;
,,0.01574,90,;;;;;;
,,0.01576,90,;;;;;;
,,0.01578,90,;;;;;;
,,0.0158,90,;;;;;;
,,0.01582,90,;;;;;;
,,0.01584,90,;;;;;;
,,0.01586,88,;;;;;;
,,0.01588,90,;;;;;;
,,0.0159,90,;;;;;;
,,0.01592,90,;;;;;;
,,0.01594,90,;;;;;;
,,0.01596,90,;;;;;;
,,0.01598,90,;;;;;;
,,0.016,90,;;;;;;
,,0.01602,88,;;;;;;
,,0.01604,90,;;;;;;
,,0.01606,90,;;;;;;
,,0.01608,88,;;;;;;
,,0.0161,88,;;;;;;
,,0.01612,88,;;;;;;
,,0.01614,90,;;;;;;
,,0.01616,90,;;;;;;
,,0.01618,88,;;;;;;
,,0.0162,88,;;;;;;
,,0.01622,90,;;;;;;
,,0.01624,88,;;;;;;
,,0.01626,90,;;;;;;
,,0.01628,90,;;;;;;
,,0.0163,88,;;;;;;
,,0.01632,88,;;;;;;
,,0.01634,88,;;;;;;
,,0.01636,88,;;;;;;
,,0.01638,88,;;;;;;
,,0.0164,88,;;;;;;
,,0.01642,86,;;;;;;
,,0.01644,86,;;;;;;
,,0.01646,86,;;;;;;
,,0.01648,86,;;;;;;
,,0.0165,86,;;;;;;
,,0.01652,86,;;;;;;
,,0.01654,86,;;;;;;
,,0.01656,82,;;;;;;
,,0.01658,84,;;;;;;
,,0.0166,86,;;;;;;
,,0.01662,82,;;;;;;
,,0.01664,82,;;;;;;
,,0.01666,82,;;;;;;
,,0.01668,82,;;;;;;
,,0.0167,82,;;;;;;
,,0.01672,82,;;;;;;
,,0.01674,80,;;;;;;
,,0.01676,80,;;;;;;
,,0.01678,80,;;;;;;
,,0.0168,78,;;;;;;
,,0.01682,78,;;;;;;
,,0.01684,78,;;;;;;
,,0.01686,76,;;;;;;
,,0.01688,76,;;;;;;
,,0.0169,76,;;;;;;
,,0.01692,78,;;;;;;
,,0.01694,78,;;;;;;
,,0.01696,74,;;;;;;
,,0.01698,74,;;;;;;
,,0.017,74,;;;;;;
,,0.01702,74,;;;;;;
,,0.01704,74,;;;;;;
,,0.01706,72,;;;;;;
,,0.01708,74,;;;;;;
,,0.0171,72,;;;;;;
,,0.01712,72,;;;;;;
,,0.01714,72,;;;;;;
,,0.01716,72,;;;;;;
,,0.01718,74,;;;;;;
,,0.0172,70,;;;;;;
,,0.01722,70,;;;;;;
,,0.01724,70,;;;;;;
,,0.01726,70,;;;;;;
,,0.01728,68,;;;;;;
,,0.0173,68,;;;;;;
,,0.01732,68,;;;;;;
,,0.01734,68,;;;;;;
,,0.01736,68,;;;;;;
,,0.01738,68,;;;;;;
,,0.0174,68,;;;;;;
,,0.01742,66,;;;;;;
,,0.01744,66,;;;;;;
,,0.01746,64,;;;;;;
,,0.01748,68,;;;;;;
,,0.0175,66,;;;;;;
,,0.01752,64,;;;;;;
,,0.01754,64,;;;;;;
,,0.01756,64,;;;;;;
,,0.01758,62,;;;;;;
,,0.0176,62,;;;;;;
,,0.01762,64,;;;;;;
,,0.01764,62,;;;;;;
,,0.01766,62,;;;;;;
,,0.01768,60,;;;;;;
,,0.0177,62,;;;;;;
,,0.01772,60,;;;;;;
,,0.01774,60,;;;;;;
,,0.01776,58,;;;;;;
,,0.01778,56,;;;;;;
,,0.0178,60,;;;;;;
,,0.01782,58,;;;;;;
,,0.01784,58,;;;;;;
,,0.01786,58,;;;;;;
,,0.01788,58,;;;;;;
,,0.0179,56,;;;;;;
,,0.01792,58,;;;;;;
,,0.01794,56,;;;;;;
,,0.01796,56,;;;;;;
,,0.01798,54,;;;;;;
,,0.018,54,;;;;;;
,,0.01802,54,;;;;;;
,,0.01804,54,;;;;;;
,,0.01806,52,;;;;;;
,,0.01808,52,;;;;;;
,,0.0181,52,;;;;;;
,,0.01812,52,;;;;;;
,,0.01814,52,;;;;;;
,,0.01816,52,;;;;;;
,,0.01818,50,;;;;;;
,,0.0182,52,;;;;;;
,,0.01822,50,;;;;;;
,,0.01824,50,;;;;;;
,,0.01826,48,;;;;;;
,,0.01828,48,;;;;;;
,,0.0183,46,;;;;;;
,,0.01832,48,;;;;;;
,,0.01834,46,;;;;;;
,,0.01836,46,;;;;;;
,,0.01838,46,;;;;;;
,,0.0184,46,;;;;;;
,,0.01842,46,;;;;;;
,,0.01844,44,;;;;;;
,,0.01846,44,;;;;;;
,,0.01848,44,;;;;;;
,,0.0185,44,;;;;;;
,,0.01852,42,;;;;;;
,,0.01854,42,;;;;;;
,,0.01856,42,;;;;;;
,,0.01858,42,;;;;;;
,,0.0186,42,;;;;;;
,,0.01862,40,;;;;;;
,,0.01864,40,;;;;;;
,,0.01866,38,;;;;;;
,,0.01868,40,;;;;;;
,,0.0187,38,;;;;;;
,,0.01872,38,;;;;;;
,,0.01874,38,;;;;;;
,,0.01876,38,;;;;;;
,,0.01878,38,;;;;;;
,,0.0188,36,;;;;;;
,,0.01882,36,;;;;;;
,,0.01884,36,;;;;;;
,,0.01886,36,;;;;;;
,,0.01888,34,;;;;;;
,,0.0189,36,;;;;;;
,,0.01892,34,;;;;;;
,,0.01894,34,;;;;;;
,,0.01896,32,;;;;;;
,,0.01898,34,;;;;;;
,,0.019,32,;;;;;;
,,0.01902,32,;;;;;;
,,0.01904,32,;;;;;;
,,0.01906,30,;;;;;;
,,0.01908,32,;;;;;;
,,0.0191,30,;;;;;;
,,0.01912,28,;;;;;;
,,0.01914,28,;;;;;;
,,0.01916,30,;;;;;;
,,0.01918,28,;;;;;;
,,0.0192,26,;;;;;;
,,0.01922,26,;;;;;;
,,0.01924,26,;;;;;;
,,0.01926,26,;;;;;;
,,0.01928,26,;;;;;;
,,0.0193,24,;;;;;;
,,0.01932,24,;;;;;;
,,0.01934,24,;;;;;;
,,0.01936,22,;;;;;;
,,0.01938,22,;;;;;;
,,0.0194,22,;;;;;;
,,0.01942,20,;;;;;;
,,0.01944,18,;;;;;;
,,0.01946,18,;;;;;;
